Scheme/SR_CNTR_MUX.vcd
$date
	Sun Dec 22 18:38:59 2024
$end
$version
	Icarus Verilog
$end
$timescale
	1s
$end
$scope module tb_top $end
$var wire 1 ! y $end
$var reg 1 " clk $end
$var reg 1 # en $end
$var reg 1 $ incr $end
$var reg 1 % reset $end
$var reg 8 & sn1 [7:0] $end
$scope module uut $end
$var wire 1 " clk $end
$var wire 1 # en $end
$var wire 1 $ incr $end
$var wire 1 % reset $end
$var wire 8 ' sn1 [7:0] $end
$var wire 1 ! y $end
$var wire 3 ( sel [2:0] $end
$var wire 8 ) q [7:0] $end
$scope begin genblk1[0] $end
$scope module dff_inst $end
$var wire 1 " clk $end
$var wire 1 * d $end
$var wire 1 % reset $end
$var reg 1 + q $end
$upscope $end
$upscope $end
$scope begin genblk1[1] $end
$scope module dff_inst $end
$var wire 1 " clk $end
$var wire 1 , d $end
$var wire 1 % reset $end
$var reg 1 - q $end
$upscope $end
$upscope $end
$scope begin genblk1[2] $end
$scope module dff_inst $end
$var wire 1 " clk $end
$var wire 1 . d $end
$var wire 1 % reset $end
$var reg 1 / q $end
$upscope $end
$upscope $end
$scope begin genblk1[3] $end
$scope module dff_inst $end
$var wire 1 " clk $end
$var wire 1 0 d $end
$var wire 1 % reset $end
$var reg 1 1 q $end
$upscope $end
$upscope $end
$scope begin genblk1[4] $end
$scope module dff_inst $end
$var wire 1 " clk $end
$var wire 1 2 d $end
$var wire 1 % reset $end
$var reg 1 3 q $end
$upscope $end
$upscope $end
$scope begin genblk1[5] $end
$scope module dff_inst $end
$var wire 1 " clk $end
$var wire 1 4 d $end
$var wire 1 % reset $end
$var reg 1 5 q $end
$upscope $end
$upscope $end
$scope begin genblk1[6] $end
$scope module dff_inst $end
$var wire 1 " clk $end
$var wire 1 6 d $end
$var wire 1 % reset $end
$var reg 1 7 q $end
$upscope $end
$upscope $end
$scope begin genblk1[7] $end
$scope module dff_inst $end
$var wire 1 " clk $end
$var wire 1 8 d $end
$var wire 1 % reset $end
$var reg 1 9 q $end
$upscope $end
$upscope $end
$scope module counter_inst $end
$var wire 1 " clk $end
$var wire 1 # en $end
$var wire 1 $ incr $end
$var wire 1 % reset $end
$var reg 3 : count [2:0] $end
$upscope $end
$scope module mux_inst $end
$var wire 8 ; d [7:0] $end
$var wire 3 < sel [2:0] $end
$var wire 1 ! y $end
$upscope $end
$upscope $end
$scope begin $ivl_for_loop0 $end
$var integer 32 = i [31:0] $end
$upscope $end
$upscope $end
$enddefinitions $end
#0
$dumpvars
bx =
b0 <
b0 ;
b0 :
09
08
07
06
05
04
03
02
01
00
0/
0.
0-
0,
0+
0*
b0 )
b0 (
b0 '
b0 &
1%
1$
1#
0"
0!
$end
#5
1"
#10
b0 =
0%
#15
0#
#20
1*
b1 =
b1 &
b1 '
#30
0*
1,
b10 =
b10 &
b10 '
0$
#35
0"
#40
1*
b11 =
b11 &
b11 '
#45
1#
#50
0*
0,
1.
b100 =
b100 &
b100 '
#60
1*
b101 =
b101 &
b101 '
1$
#65
1+
b101 )
b101 ;
1/
b1 (
b1 :
b1 <
1"
#70
0*
1,
b110 =
b110 &
b110 '
#75
0#
#80
1*
b111 =
b111 &
b111 '
#90
0*
0,
0.
10
b1000 =
b1000 &
b1000 '
0$
#95
0"
#100
1*
b1001 =
b1001 &
b1001 '
#105
1#
#110
0*
1,
b1010 =
b1010 &
b1010 '
#120
1*
b1011 =
b1011 &
b1011 '
1$
#125
b10 (
b10 :
b10 <
11
0/
0!
b1011 )
b1011 ;
1-
1"
#130
0*
0,
1.
b1100 =
b1100 &
b1100 '
#135
0#
#140
1*
b1101 =
b1101 &
b1101 '
#150
0*
1,
b1110 =
b1110 &
b1110 '
0$
#155
0"
#160
1*
b1111 =
b1111 &
b1111 '
#165
1#
#170
0*
0,
0.
00
12
b10000 =
b10000 &
b10000 '
#180
1*
b10001 =
b10001 &
b10001 '
1$
#185
0-
01
b10001 )
b10001 ;
13
0!
b11 (
b11 :
b11 <
1"
#190
0*
1,
b10010 =
b10010 &
b10010 '
#195
0#
#200
1*
b10011 =
b10011 &
b10011 '
#210
0*
0,
1.
b10100 =
b10100 &
b10100 '
0$
#215
0"
#220
1*
b10101 =
b10101 &
b10101 '
#225
1#
#230
0*
1,
b10110 =
b10110 &
b10110 '
#240
1*
b10111 =
b10111 &
b10111 '
1$
#245
1!
b100 (
b100 :
b100 <
1/
b10111 )
b10111 ;
1-
1"
#250
0*
0,
0.
10
b11000 =
b11000 &
b11000 '
#255
0#
#260
1*
b11001 =
b11001 &
b11001 '
#270
0*
1,
b11010 =
b11010 &
b11010 '
0$
#275
0"
#280
1*
b11011 =
b11011 &
b11011 '
#285
1#
#290
0*
0,
1.
b11100 =
b11100 &
b11100 '
#300
1*
b11101 =
b11101 &
b11101 '
1$
#305
0-
b11101 )
b11101 ;
11
0!
b101 (
b101 :
b101 <
1"
#310
0*
1,
b11110 =
b11110 &
b11110 '
#315
0#
#320
1*
b11111 =
b11111 &
b11111 '
#330
0*
0,
0.
00
02
14
b100000 =
b100000 &
b100000 '
0$
#335
0"
#340
1*
b100001 =
b100001 &
b100001 '
#345
1#
#350
0*
1,
b100010 =
b100010 &
b100010 '
#360
1*
b100011 =
b100011 &
b100011 '
1$
#365
b110 (
b110 :
b110 <
0!
15
03
01
0/
b100011 )
b100011 ;
1-
1"
#370
0*
0,
1.
b100100 =
b100100 &
b100100 '
#375
0#
#380
1*
b100101 =
b100101 &
b100101 '
#390
0*
1,
b100110 =
b100110 &
b100110 '
0$
#395
0"
#400
1*
b100111 =
b100111 &
b100111 '
#405
1#
#410
0*
0,
0.
10
b101000 =
b101000 &
b101000 '
#420
1*
b101001 =
b101001 &
b101001 '
1$
#425
0-
b101001 )
b101001 ;
11
b111 (
b111 :
b111 <
1"
#430
0*
1,
b101010 =
b101010 &
b101010 '
#435
0#
#440
1*
b101011 =
b101011 &
b101011 '
#450
0*
0,
1.
b101100 =
b101100 &
b101100 '
0$
#455
0"
#460
1*
b101101 =
b101101 &
b101101 '
#465
1#
#470
0*
1,
b101110 =
b101110 &
b101110 '
#480
1*
b101111 =
b101111 &
b101111 '
1$
#485
1!
b0 (
b0 :
b0 <
1/
b101111 )
b101111 ;
1-
1"
#490
0*
0,
0.
00
12
b110000 =
b110000 &
b110000 '
#495
0#
#500
1*
b110001 =
b110001 &
b110001 '
#510
0*
1,
b110010 =
b110010 &
b110010 '
0$
#515
0"
#520
1*
b110011 =
b110011 &
b110011 '
#525
1#
#530
0*
0,
1.
b110100 =
b110100 &
b110100 '
#540
1*
b110101 =
b110101 &
b110101 '
1$
#545
0!
0-
01
b110101 )
b110101 ;
13
b1 (
b1 :
b1 <
1"
#550
0*
1,
b110110 =
b110110 &
b110110 '
#555
0#
#560
1*
b110111 =
b110111 &
b110111 '
#570
0*
0,
0.
10
b111000 =
b111000 &
b111000 '
0$
#575
0"
#580
1*
b111001 =
b111001 &
b111001 '
#585
1#
#590
0*
1,
b111010 =
b111010 &
b111010 '
#600
1*
b111011 =
b111011 &
b111011 '
1$
#605
b10 (
b10 :
b10 <
11
0/
0!
b111011 )
b111011 ;
1-
1"
#610
0*
0,
1.
b111100 =
b111100 &
b111100 '
#615
0#
#620
1*
b111101 =
b111101 &
b111101 '
#630
0*
1,
b111110 =
b111110 &
b111110 '
0$
#635
0"
#640
1*
b111111 =
b111111 &
b111111 '
#645
1#
#650
0*
0,
0.
00
02
04
16
b1000000 =
b1000000 &
b1000000 '
#660
1*
b1000001 =
b1000001 &
b1000001 '
1$
#665
0-
01
03
05
b1000001 )
b1000001 ;
17
0!
b11 (
b11 :
b11 <
1"
#670
0*
1,
b1000010 =
b1000010 &
b1000010 '
#675
0#
#680
1*
b1000011 =
b1000011 &
b1000011 '
#690
0*
0,
1.
b1000100 =
b1000100 &
b1000100 '
0$
#695
0"
#700
1*
b1000101 =
b1000101 &
b1000101 '
#705
1#
#710
0*
1,
b1000110 =
b1000110 &
b1000110 '
#720
1*
b1000111 =
b1000111 &
b1000111 '
1$
#725
b100 (
b100 :
b100 <
1/
b1000111 )
b1000111 ;
1-
1"
#730
0*
0,
0.
10
b1001000 =
b1001000 &
b1001000 '
#735
0#
#740
1*
b1001001 =
b1001001 &
b1001001 '
#750
0*
1,
b1001010 =
b1001010 &
b1001010 '
0$
#755
0"
#760
1*
b1001011 =
b1001011 &
b1001011 '
#765
1#
#770
0*
0,
1.
b1001100 =
b1001100 &
b1001100 '
#780
1*
b1001101 =
b1001101 &
b1001101 '
1$
#785
0-
b1001101 )
b1001101 ;
11
b101 (
b101 :
b101 <
1"
#790
0*
1,
b1001110 =
b1001110 &
b1001110 '
#795
0#
#800
1*
b1001111 =
b1001111 &
b1001111 '
#810
0*
0,
0.
00
12
b1010000 =
b1010000 &
b1010000 '
0$
#815
0"
#820
1*
b1010001 =
b1010001 &
b1010001 '
#825
1#
#830
0*
1,
b1010010 =
b1010010 &
b1010010 '
#840
1*
b1010011 =
b1010011 &
b1010011 '
1$
#845
1!
b110 (
b110 :
b110 <
13
01
0/
b1010011 )
b1010011 ;
1-
1"
#850
0*
0,
1.
b1010100 =
b1010100 &
b1010100 '
#855
0#
#860
1*
b1010101 =
b1010101 &
b1010101 '
#870
0*
1,
b1010110 =
b1010110 &
b1010110 '
0$
#875
0"
#880
1*
b1010111 =
b1010111 &
b1010111 '
#885
1#
#890
0*
0,
0.
10
b1011000 =
b1011000 &
b1011000 '
#900
1*
b1011001 =
b1011001 &
b1011001 '
1$
#905
0-
b1011001 )
b1011001 ;
11
0!
b111 (
b111 :
b111 <
1"
#910
0*
1,
b1011010 =
b1011010 &
b1011010 '
#915
0#
#920
1*
b1011011 =
b1011011 &
b1011011 '
#930
0*
0,
1.
b1011100 =
b1011100 &
b1011100 '
0$
#935
0"
#940
1*
b1011101 =
b1011101 &
b1011101 '
#945
1#
#950
0*
1,
b1011110 =
b1011110 &
b1011110 '
#960
1*
b1011111 =
b1011111 &
b1011111 '
1$
#965
1!
b0 (
b0 :
b0 <
1/
b1011111 )
b1011111 ;
1-
1"
#970
0*
0,
0.
00
02
14
b1100000 =
b1100000 &
b1100000 '
#975
0#
#980
1*
b1100001 =
b1100001 &
b1100001 '
#990
0*
1,
b1100010 =
b1100010 &
b1100010 '
0$
#995
0"
#1000
1*
b1100011 =
b1100011 &
b1100011 '
#1005
1#
#1010
0*
0,
1.
b1100100 =
b1100100 &
b1100100 '
#1020
1*
b1100101 =
b1100101 &
b1100101 '
1$
#1025
0!
0-
01
03
b1100101 )
b1100101 ;
15
b1 (
b1 :
b1 <
1"
#1030
0*
1,
b1100110 =
b1100110 &
b1100110 '
#1035
0#
#1040
1*
b1100111 =
b1100111 &
b1100111 '
#1050
0*
0,
0.
10
b1101000 =
b1101000 &
b1101000 '
0$
#1055
0"
#1060
1*
b1101001 =
b1101001 &
b1101001 '
#1065
1#
#1070
0*
1,
b1101010 =
b1101010 &
b1101010 '
#1080
1*
b1101011 =
b1101011 &
b1101011 '
1$
#1085
b10 (
b10 :
b10 <
11
0/
0!
b1101011 )
b1101011 ;
1-
1"
#1090
0*
0,
1.
b1101100 =
b1101100 &
b1101100 '
#1095
0#
#1100
1*
b1101101 =
b1101101 &
b1101101 '
#1110
0*
1,
b1101110 =
b1101110 &
b1101110 '
0$
#1115
0"
#1120
1*
b1101111 =
b1101111 &
b1101111 '
#1125
1#
#1130
0*
0,
0.
00
12
b1110000 =
b1110000 &
b1110000 '
#1140
1*
b1110001 =
b1110001 &
b1110001 '
1$
#1145
0-
01
b1110001 )
b1110001 ;
13
0!
b11 (
b11 :
b11 <
1"
#1150
0*
1,
b1110010 =
b1110010 &
b1110010 '
#1155
0#
#1160
1*
b1110011 =
b1110011 &
b1110011 '
#1170
0*
0,
1.
b1110100 =
b1110100 &
b1110100 '
0$
#1175
0"
#1180
1*
b1110101 =
b1110101 &
b1110101 '
#1185
1#
#1190
0*
1,
b1110110 =
b1110110 &
b1110110 '
#1200
1*
b1110111 =
b1110111 &
b1110111 '
1$
#1205
1!
b100 (
b100 :
b100 <
1/
b1110111 )
b1110111 ;
1-
1"
#1210
0*
0,
0.
10
b1111000 =
b1111000 &
b1111000 '
#1215
0#
#1220
1*
b1111001 =
b1111001 &
b1111001 '
#1230
0*
1,
b1111010 =
b1111010 &
b1111010 '
0$
#1235
0"
#1240
1*
b1111011 =
b1111011 &
b1111011 '
#1245
1#
#1250
0*
0,
1.
b1111100 =
b1111100 &
b1111100 '
#1260
1*
b1111101 =
b1111101 &
b1111101 '
1$
#1265
0-
b1111101 )
b1111101 ;
11
b101 (
b101 :
b101 <
1"
#1270
0*
1,
b1111110 =
b1111110 &
b1111110 '
#1275
0#
#1280
1*
b1111111 =
b1111111 &
b1111111 '
#1290
0*
0,
0.
00
02
04
06
18
b10000000 =
b10000000 &
b10000000 '
0$
#1295
0"
#1300
1*
b10000001 =
b10000001 &
b10000001 '
#1305
1#
#1310
0*
1,
b10000010 =
b10000010 &
b10000010 '
#1320
1*
b10000011 =
b10000011 &
b10000011 '
1$
#1325
b110 (
b110 :
b110 <
19
07
0!
05
03
01
0/
b10000011 )
b10000011 ;
1-
1"
#1330
0*
0,
1.
b10000100 =
b10000100 &
b10000100 '
#1335
0#
#1340
1*
b10000101 =
b10000101 &
b10000101 '
#1350
0*
1,
b10000110 =
b10000110 &
b10000110 '
0$
#1355
0"
#1360
1*
b10000111 =
b10000111 &
b10000111 '
#1365
1#
#1370
0*
0,
0.
10
b10001000 =
b10001000 &
b10001000 '
#1380
1*
b10001001 =
b10001001 &
b10001001 '
1$
#1385
0-
b10001001 )
b10001001 ;
11
1!
b111 (
b111 :
b111 <
1"
#1390
0*
1,
b10001010 =
b10001010 &
b10001010 '
#1395
0#
#1400
1*
b10001011 =
b10001011 &
b10001011 '
#1410
0*
0,
1.
b10001100 =
b10001100 &
b10001100 '
0$
#1415
0"
#1420
1*
b10001101 =
b10001101 &
b10001101 '
#1425
1#
#1430
0*
1,
b10001110 =
b10001110 &
b10001110 '
#1440
1*
b10001111 =
b10001111 &
b10001111 '
1$
#1445
b0 (
b0 :
b0 <
1/
b10001111 )
b10001111 ;
1-
1"
#1450
0*
0,
0.
00
12
b10010000 =
b10010000 &
b10010000 '
#1455
0#
#1460
1*
b10010001 =
b10010001 &
b10010001 '
#1470
0*
1,
b10010010 =
b10010010 &
b10010010 '
0$
#1475
0"
#1480
1*
b10010011 =
b10010011 &
b10010011 '
#1485
1#
#1490
0*
0,
1.
b10010100 =
b10010100 &
b10010100 '
#1500
1*
b10010101 =
b10010101 &
b10010101 '
1$
#1505
0!
0-
01
b10010101 )
b10010101 ;
13
b1 (
b1 :
b1 <
1"
#1510
0*
1,
b10010110 =
b10010110 &
b10010110 '
#1515
0#
#1520
1*
b10010111 =
b10010111 &
b10010111 '
#1530
0*
0,
0.
10
b10011000 =
b10011000 &
b10011000 '
0$
#1535
0"
#1540
1*
b10011001 =
b10011001 &
b10011001 '
#1545
1#
#1550
0*
1,
b10011010 =
b10011010 &
b10011010 '
#1560
1*
b10011011 =
b10011011 &
b10011011 '
1$
#1565
b10 (
b10 :
b10 <
11
0/
0!
b10011011 )
b10011011 ;
1-
1"
#1570
0*
0,
1.
b10011100 =
b10011100 &
b10011100 '
#1575
0#
#1580
1*
b10011101 =
b10011101 &
b10011101 '
#1590
0*
1,
b10011110 =
b10011110 &
b10011110 '
0$
#1595
0"
#1600
1*
b10011111 =
b10011111 &
b10011111 '
#1605
1#
#1610
0*
0,
0.
00
02
14
b10100000 =
b10100000 &
b10100000 '
#1620
1*
b10100001 =
b10100001 &
b10100001 '
1$
#1625
0-
01
03
b10100001 )
b10100001 ;
15
0!
b11 (
b11 :
b11 <
1"
#1630
0*
1,
b10100010 =
b10100010 &
b10100010 '
#1635
0#
#1640
1*
b10100011 =
b10100011 &
b10100011 '
#1650
0*
0,
1.
b10100100 =
b10100100 &
b10100100 '
0$
#1655
0"
#1660
1*
b10100101 =
b10100101 &
b10100101 '
#1665
1#
#1670
0*
1,
b10100110 =
b10100110 &
b10100110 '
#1680
1*
b10100111 =
b10100111 &
b10100111 '
1$
#1685
b100 (
b100 :
b100 <
1/
b10100111 )
b10100111 ;
1-
1"
#1690
0*
0,
0.
10
b10101000 =
b10101000 &
b10101000 '
#1695
0#
#1700
1*
b10101001 =
b10101001 &
b10101001 '
#1710
0*
1,
b10101010 =
b10101010 &
b10101010 '
0$
#1715
0"
#1720
1*
b10101011 =
b10101011 &
b10101011 '
#1725
1#
#1730
0*
0,
1.
b10101100 =
b10101100 &
b10101100 '
#1740
1*
b10101101 =
b10101101 &
b10101101 '
1$
#1745
0-
b10101101 )
b10101101 ;
11
1!
b101 (
b101 :
b101 <
1"
#1750
0*
1,
b10101110 =
b10101110 &
b10101110 '
#1755
0#
#1760
1*
b10101111 =
b10101111 &
b10101111 '
#1770
0*
0,
0.
00
12
b10110000 =
b10110000 &
b10110000 '
0$
#1775
0"
#1780
1*
b10110001 =
b10110001 &
b10110001 '
#1785
1#
#1790
0*
1,
b10110010 =
b10110010 &
b10110010 '
#1800
1*
b10110011 =
b10110011 &
b10110011 '
1$
#1805
0!
b110 (
b110 :
b110 <
13
01
0/
b10110011 )
b10110011 ;
1-
1"
#1810
0*
0,
1.
b10110100 =
b10110100 &
b10110100 '
#1815
0#
#1820
1*
b10110101 =
b10110101 &
b10110101 '
#1830
0*
1,
b10110110 =
b10110110 &
b10110110 '
0$
#1835
0"
#1840
1*
b10110111 =
b10110111 &
b10110111 '
#1845
1#
#1850
0*
0,
0.
10
b10111000 =
b10111000 &
b10111000 '
#1860
1*
b10111001 =
b10111001 &
b10111001 '
1$
#1865
0-
b10111001 )
b10111001 ;
11
1!
b111 (
b111 :
b111 <
1"
#1870
0*
1,
b10111010 =
b10111010 &
b10111010 '
#1875
0#
#1880
1*
b10111011 =
b10111011 &
b10111011 '
#1890
0*
0,
1.
b10111100 =
b10111100 &
b10111100 '
0$
#1895
0"
#1900
1*
b10111101 =
b10111101 &
b10111101 '
#1905
1#
#1910
0*
1,
b10111110 =
b10111110 &
b10111110 '
#1920
1*
b10111111 =
b10111111 &
b10111111 '
1$
#1925
b0 (
b0 :
b0 <
1/
b10111111 )
b10111111 ;
1-
1"
#1930
0*
0,
0.
00
02
04
16
b11000000 =
b11000000 &
b11000000 '
#1935
0#
#1940
1*
b11000001 =
b11000001 &
b11000001 '
#1950
0*
1,
b11000010 =
b11000010 &
b11000010 '
0$
#1955
0"
#1960
1*
b11000011 =
b11000011 &
b11000011 '
#1965
1#
#1970
0*
0,
1.
b11000100 =
b11000100 &
b11000100 '
#1980
1*
b11000101 =
b11000101 &
b11000101 '
1$
#1985
0!
0-
01
03
05
b11000101 )
b11000101 ;
17
b1 (
b1 :
b1 <
1"
#1990
0*
1,
b11000110 =
b11000110 &
b11000110 '
#1995
0#
#2000
1*
b11000111 =
b11000111 &
b11000111 '
#2010
0*
0,
0.
10
b11001000 =
b11001000 &
b11001000 '
0$
#2015
0"
#2020
1*
b11001001 =
b11001001 &
b11001001 '
#2025
1#
#2030
0*
1,
b11001010 =
b11001010 &
b11001010 '
#2040
1*
b11001011 =
b11001011 &
b11001011 '
1$
#2045
b10 (
b10 :
b10 <
11
0/
0!
b11001011 )
b11001011 ;
1-
1"
#2050
0*
0,
1.
b11001100 =
b11001100 &
b11001100 '
#2055
0#
#2060
1*
b11001101 =
b11001101 &
b11001101 '
#2070
0*
1,
b11001110 =
b11001110 &
b11001110 '
0$
#2075
0"
#2080
1*
b11001111 =
b11001111 &
b11001111 '
#2085
1#
#2090
0*
0,
0.
00
12
b11010000 =
b11010000 &
b11010000 '
#2100
1*
b11010001 =
b11010001 &
b11010001 '
1$
#2105
0-
01
b11010001 )
b11010001 ;
13
0!
b11 (
b11 :
b11 <
1"
#2110
0*
1,
b11010010 =
b11010010 &
b11010010 '
#2115
0#
#2120
1*
b11010011 =
b11010011 &
b11010011 '
#2130
0*
0,
1.
b11010100 =
b11010100 &
b11010100 '
0$
#2135
0"
#2140
1*
b11010101 =
b11010101 &
b11010101 '
#2145
1#
#2150
0*
1,
b11010110 =
b11010110 &
b11010110 '
#2160
1*
b11010111 =
b11010111 &
b11010111 '
1$
#2165
1!
b100 (
b100 :
b100 <
1/
b11010111 )
b11010111 ;
1-
1"
#2170
0*
0,
0.
10
b11011000 =
b11011000 &
b11011000 '
#2175
0#
#2180
1*
b11011001 =
b11011001 &
b11011001 '
#2190
0*
1,
b11011010 =
b11011010 &
b11011010 '
0$
#2195
0"
#2200
1*
b11011011 =
b11011011 &
b11011011 '
#2205
1#
#2210
0*
0,
1.
b11011100 =
b11011100 &
b11011100 '
#2220
1*
b11011101 =
b11011101 &
b11011101 '
1$
#2225
0-
b11011101 )
b11011101 ;
11
0!
b101 (
b101 :
b101 <
1"
#2230
0*
1,
b11011110 =
b11011110 &
b11011110 '
#2235
0#
#2240
1*
b11011111 =
b11011111 &
b11011111 '
#2250
0*
0,
0.
00
02
14
b11100000 =
b11100000 &
b11100000 '
0$
#2255
0"
#2260
1*
b11100001 =
b11100001 &
b11100001 '
#2265
1#
#2270
0*
1,
b11100010 =
b11100010 &
b11100010 '
#2280
1*
b11100011 =
b11100011 &
b11100011 '
1$
#2285
b110 (
b110 :
b110 <
1!
15
03
01
0/
b11100011 )
b11100011 ;
1-
1"
#2290
0*
0,
1.
b11100100 =
b11100100 &
b11100100 '
#2295
0#
#2300
1*
b11100101 =
b11100101 &
b11100101 '
#2310
0*
1,
b11100110 =
b11100110 &
b11100110 '
0$
#2315
0"
#2320
1*
b11100111 =
b11100111 &
b11100111 '
#2325
1#
#2330
0*
0,
0.
10
b11101000 =
b11101000 &
b11101000 '
#2340
1*
b11101001 =
b11101001 &
b11101001 '
1$
#2345
0-
b11101001 )
b11101001 ;
11
b111 (
b111 :
b111 <
1"
#2350
0*
1,
b11101010 =
b11101010 &
b11101010 '
#2355
0#
#2360
1*
b11101011 =
b11101011 &
b11101011 '
#2370
0*
0,
1.
b11101100 =
b11101100 &
b11101100 '
0$
#2375
0"
#2380
1*
b11101101 =
b11101101 &
b11101101 '
#2385
1#
#2390
0*
1,
b11101110 =
b11101110 &
b11101110 '
#2400
1*
b11101111 =
b11101111 &
b11101111 '
1$
#2405
b0 (
b0 :
b0 <
1/
b11101111 )
b11101111 ;
1-
1"
#2410
0*
0,
0.
00
12
b11110000 =
b11110000 &
b11110000 '
#2415
0#
#2420
1*
b11110001 =
b11110001 &
b11110001 '
#2430
0*
1,
b11110010 =
b11110010 &
b11110010 '
0$
#2435
0"
#2440
1*
b11110011 =
b11110011 &
b11110011 '
#2445
1#
#2450
0*
0,
1.
b11110100 =
b11110100 &
b11110100 '
#2460
1*
b11110101 =
b11110101 &
b11110101 '
1$
#2465
0!
0-
01
b11110101 )
b11110101 ;
13
b1 (
b1 :
b1 <
1"
#2470
0*
1,
b11110110 =
b11110110 &
b11110110 '
#2475
0#
#2480
1*
b11110111 =
b11110111 &
b11110111 '
#2490
0*
0,
0.
10
b11111000 =
b11111000 &
b11111000 '
0$
#2495
0"
#2500
1*
b11111001 =
b11111001 &
b11111001 '
#2505
1#
#2510
0*
1,
b11111010 =
b11111010 &
b11111010 '
#2520
1*
b11111011 =
b11111011 &
b11111011 '
1$
#2525
b10 (
b10 :
b10 <
11
0/
0!
b11111011 )
b11111011 ;
1-
1"
#2530
0*
0,
1.
b11111100 =
b11111100 &
b11111100 '
#2535
0#
#2540
1*
b11111101 =
b11111101 &
b11111101 '
#2550
0*
1,
b11111110 =
b11111110 &
b11111110 '
0$
#2555
0"
#2560
1*
b11111111 =
b11111111 &
b11111111 '
#2565
1#
#2570
0*
0,
0.
00
02
04
06
08
b100000000 =
b0 &
b0 '
#2580
1$
#2585
0+
0-
01
03
05
07
b0 )
b0 ;
09
0!
b11 (
b11 :
b11 <
1"
#2595
0#
#2610
0$
#2615
0"
#2625
1#
#2640
1$
#2645
b100 (
b100 :
b100 <
1"
#2655
0#
#2670
0$
#2675
0"
#2685
1#
#2700
1$
#2705
b101 (
b101 :
b101 <
1"
#2715
0#
#2730
0$
#2735
0"
#2745
1#
#2760
1$
#2765
b110 (
b110 :
b110 <
1"
#2775
0#
#2790
0$
#2795
0"
#2805
1#
#2820
1$
#2825
b111 (
b111 :
b111 <
1"
#2835
0#
#2850
0$
#2855
0"
#2865
1#
#2880
1$
#2885
b0 (
b0 :
b0 <
1"
#2895
0#
#2910
0$
#2915
0"
#2925
1#
#2940
1$
#2945
b1 (
b1 :
b1 <
1"
#2955
0#
#2970
0$
#2975
0"
#2985
1#
#3000
1$
#3005
b10 (
b10 :
b10 <
1"
#3015
0#
#3030
0$
#3035
0"
#3045
1#
#3060
1$
#3065
b11 (
b11 :
b11 <
1"
#3075
0#
#3090
0$
#3095
0"
#3105
1#
#3120
1$
#3125
b100 (
b100 :
b100 <
1"
#3135
0#
#3150
0$
#3155
0"
#3165
1#
#3180
1$
#3185
b101 (
b101 :
b101 <
1"
#3195
0#
#3210
0$
#3215
0"
#3225
1#
#3240
1$
#3245
b110 (
b110 :
b110 <
1"
#3255
0#
#3270
0$
#3275
0"
#3285
1#
#3300
1$
#3305
b111 (
b111 :
b111 <
1"
#3315
0#
#3330
0$
#3335
0"
#3345
1#
#3360
1$
#3365
b0 (
b0 :
b0 <
1"
#3375
0#
#3390
0$
#3395
0"
#3405
1#
#3420
1$
#3425
b1 (
b1 :
b1 <
1"
#3435
0#
#3450
0$
#3455
0"
#3465
1#
#3480
1$
#3485
b10 (
b10 :
b10 <
1"
#3495
0#
#3510
0$
#3515
0"
#3525
1#
#3540
1$
#3545
b11 (
b11 :
b11 <
1"
#3555
0#
#3570
0$
